display_name,first_name,last_name,email
Sunil Mohan Adapa,Sunil Mohan,Adapa,sunil@medhas.org
Alexander Akulich,Alexander,Akulich,akulichalexander@gmail.com
Olly Betts,Olly,Betts,olly@survex.com
LocutusOfBorg,Gianfranco,Costamagna,locutusofborg@debian.org
Molly de Blanc,Molly,de Blanc,deblanc@riseup.net
Calixte Denizet,Calixte,Denizet,calixte.denizet@gmail.com
cdesai,Chirayu,Desai,chirayudesai1@gmail.com
Lucas Kanashiro,Lucas,Duarte,kanashiro@debian.org
Urvika Gola,Urvika,Gola,urvika.gola@gmail.com
Raphaël HERTZOG,Raphaël,HERTZOG,hertzog@debian.org
Dashamir Hoxha,Dashamir,Hoxha,dashohoxha@gmail.com
Pranav Jain,Pranav,Jain,contact@pranavjain.me
CuriousLearner,Sanyam,Khurana,sanyam.khurana01@gmail.com
Silvi Kolumcaj,Silvi,Kolumcaj,kolumcaj.silvi@gmail.com
Keith Larrimore,Keith,Larrimore,klarrimore@icehook.com
Milena Lavaqnchy,Milena,Lavaqnchy,Milena.Lavanchy@gmail.com
Sylvestre Ledru,Sylvestre,Ledru,sylvestre@debian.org
Thomas Levine,Thomas,Levine,_@thomaslevine.com
Bruno Magalhães,Bruno,Magalhães,bfmags@gmail.com
Nicolas Mora,Nicolas,Mora,nicolas@babelouest.org
Daniele Nicolodi,Daniele,Nicolodi,daniele@grinta.net
Lucas Nussbaum,Lucas,Nussbaum,lucas@debian.org
Pierre Parent,Pierre,Parent,pierre.parent@insa-rouen.fr
Balram Pariyarath,Balram,Pariyarath,balbbrl@gmail.com
Daniel Pocock,Daniel,Pocock,daniel@pocock.pro
Jaminy Prabaharan,Jaminy,Prabaharan,jaminy02@gmail.com
Manuel Riel,Manuel,Riel,manu@snapdragon.cc
Renata,Renata,Scheibler,renatadavila@protonmail.com
T K Sourab,T K,Sourab,sourabhtk37@gmail.com
Hans-Christoph Steiner,Hans-Christoph,Steiner,hans@at.or.at
Andreas Tille,Andreas,Tille,tille@debian.org
Andrea Trentini,Andrea,Trentini,andrea.trentini@unimi.it
formorer,Alexander,Wirt,formorer@formorer.de
殷啟聰 | Kai-Chung Yan,QICONG,YIN,seamlikok@gmail.com
